<?xml version="1.0" encoding="UTF-8" standalone="no"?>
<svg
   xmlns:dc="http://purl.org/dc/elements/1.1/"
   xmlns:cc="http://creativecommons.org/ns#"
   xmlns:rdf="http://www.w3.org/1999/02/22-rdf-syntax-ns#"
   xmlns:svg="http://www.w3.org/2000/svg"
   xmlns="http://www.w3.org/2000/svg"
   xmlns:sodipodi="http://sodipodi.sourceforge.net/DTD/sodipodi-0.dtd"
   xmlns:inkscape="http://www.inkscape.org/namespaces/inkscape"
   width="512"
   height="2048"
   viewBox="0 0 135.46666 541.86668"
   version="1.1"
   id="svg8"
   inkscape:version="1.0.2 (e86c870879, 2021-01-15)"
   sodipodi:docname="container_4A55.svg">
  <defs
     id="defs2" />
  <sodipodi:namedview
     id="base"
     pagecolor="#ffffff"
     bordercolor="#666666"
     borderopacity="1.0"
     inkscape:pageopacity="0"
     inkscape:pageshadow="2"
     inkscape:zoom="0.35"
     inkscape:cx="456.14856"
     inkscape:cy="731.79254"
     inkscape:document-units="px"
     inkscape:current-layer="layer1"
     inkscape:document-rotation="0"
     showgrid="true"
     units="px"
     inkscape:window-width="2560"
     inkscape:window-height="1357"
     inkscape:window-x="1200"
     inkscape:window-y="240"
     inkscape:window-maximized="1"
     inkscape:snap-grids="true">
    <inkscape:grid
       type="xygrid"
       id="grid833"
       units="px"
       empspacing="4"
       spacingy="2.1166666"
       spacingx="2.1166666" />
  </sodipodi:namedview>
  <metadata
     id="metadata5">
    <rdf:RDF>
      <cc:Work
         rdf:about="">
        <dc:format>image/svg+xml</dc:format>
        <dc:type
           rdf:resource="http://purl.org/dc/dcmitype/StillImage" />
        <dc:title></dc:title>
      </cc:Work>
    </rdf:RDF>
  </metadata>
  <g
     inkscape:label="Desk"
     inkscape:groupmode="layer"
     id="layer1">
    <path
       id="rect842"
       style="fill:#782121;stroke:#550000;stroke-width:1.05833;stroke-linecap:round;stroke-miterlimit:4;stroke-dasharray:none;stop-color:#000000"
       d="m 10.583333,8.4666662 c -1.1726335,0 -2.1166668,0.9440334 -2.1166668,2.1166668 V 533.39999 c 0,1.17264 0.9440333,2.11667 2.1166668,2.11667 H 124.88333 c 1.17263,0 2.11667,-0.94403 2.11667,-2.11667 V 10.583333 c 0,-1.1726334 -0.94404,-2.1166668 -2.11667,-2.1166668 z M 21.166666,16.933333 H 114.3 c 2.34526,0 4.23333,1.888066 4.23333,4.233333 V 520.69999 c 0,2.34527 -1.88807,4.23334 -4.23333,4.23334 H 21.166666 c -2.345267,0 -4.233333,-1.88807 -4.233333,-4.23334 V 21.166666 c 0,-2.345267 1.888066,-4.233333 4.233333,-4.233333 z" />
    <rect
       style="fill:none;stroke:#501616;stroke-width:1.05833;stroke-linecap:round;stroke-miterlimit:4;stroke-dasharray:none;stop-color:#000000"
       id="rect844"
       width="118.53333"
       height="527.04999"
       x="8.4666662"
       y="8.4666662"
       rx="2.1166666"
       ry="2.1166666" />
    <text
       xml:space="preserve"
       style="font-size:8.46667px;line-height:1.25;font-family:'Permanent Marker';-inkscape-font-specification:'Permanent Marker';stroke-width:0.264583"
       x="-142.07065"
       y="-23.162157"
       id="text884"><tspan
         sodipodi:role="line"
         id="tspan882"
         x="-142.07065"
         y="-23.162157"
         style="font-style:normal;font-variant:normal;font-weight:normal;font-stretch:normal;font-family:Bilanidin;-inkscape-font-specification:Bilanidin;stroke-width:0.264583" /></text>
    <g
       id="g928">
      <rect
         style="fill:#501616;stroke:#501616;stroke-width:2.11666;stroke-linejoin:round;stroke-miterlimit:4;stroke-dasharray:none;stop-color:#000000"
         id="rect840-3"
         width="12.699997"
         height="12.700001"
         x="118.53334"
         y="4.2333331"
         rx="2.1166666"
         ry="1.8919069e-07" />
      <circle
         style="fill:#280b0b;stroke:#280b0b;stroke-width:1.05833;stroke-linecap:round;stroke-linejoin:round;stop-color:#000000"
         id="path924"
         cx="124.88334"
         cy="10.583333"
         r="4.2333331" />
    </g>
    <g
       id="g928-5"
       transform="translate(-8.2023294e-6,520.69998)">
      <rect
         style="fill:#501616;stroke:#501616;stroke-width:2.11666;stroke-linejoin:round;stroke-miterlimit:4;stroke-dasharray:none;stop-color:#000000"
         id="rect840-3-7"
         width="12.699997"
         height="12.700001"
         x="118.53334"
         y="4.2333331"
         rx="2.1166666"
         ry="1.8919069e-07" />
      <circle
         style="fill:#280b0b;stroke:#280b0b;stroke-width:1.05833;stroke-linecap:round;stroke-linejoin:round;stop-color:#000000"
         id="path924-4"
         cx="124.88334"
         cy="10.583333"
         r="4.2333331" />
    </g>
    <g
       id="g928-9"
       transform="translate(-114.30001,520.69998)">
      <rect
         style="fill:#501616;stroke:#501616;stroke-width:2.11666;stroke-linejoin:round;stroke-miterlimit:4;stroke-dasharray:none;stop-color:#000000"
         id="rect840-3-9"
         width="12.699997"
         height="12.700001"
         x="118.53334"
         y="4.2333331"
         rx="2.1166666"
         ry="1.8919069e-07" />
      <circle
         style="fill:#280b0b;stroke:#280b0b;stroke-width:1.05833;stroke-linecap:round;stroke-linejoin:round;stop-color:#000000"
         id="path924-45"
         cx="124.88334"
         cy="10.583333"
         r="4.2333331" />
    </g>
    <g
       id="g928-93"
       transform="translate(-114.30001)">
      <rect
         style="fill:#501616;stroke:#501616;stroke-width:2.11666;stroke-linejoin:round;stroke-miterlimit:4;stroke-dasharray:none;stop-color:#000000"
         id="rect840-3-5"
         width="12.699997"
         height="12.700001"
         x="118.53334"
         y="4.2333331"
         rx="2.1166666"
         ry="1.8919069e-07" />
      <circle
         style="fill:#280b0b;stroke:#280b0b;stroke-width:1.05833;stroke-linecap:round;stroke-linejoin:round;stop-color:#000000"
         id="path924-7"
         cx="124.88334"
         cy="10.583333"
         r="4.2333331" />
    </g>
    <rect
       style="fill:#a02c2c;stroke:#501616;stroke-width:1.05833;stroke-linecap:round;stroke-linejoin:round;stroke-miterlimit:4;stroke-dasharray:none;stop-color:#000000"
       id="rect988-8-0"
       width="122.76666"
       height="16.933331"
       x="6.3499994"
       y="126.99999"
       rx="1.0583333"
       ry="1.0629398e-06" />
    <rect
       style="fill:#a02c2c;stroke:#501616;stroke-width:1.05833;stroke-linecap:round;stroke-linejoin:round;stroke-miterlimit:4;stroke-dasharray:none;stop-color:#000000"
       id="rect988-0-2"
       width="122.76666"
       height="16.933331"
       x="6.3499994"
       y="262.46664"
       rx="1.0583333"
       ry="1.0629398e-06" />
    <rect
       style="fill:#a02c2c;stroke:#501616;stroke-width:1.05833;stroke-linecap:round;stroke-linejoin:round;stroke-miterlimit:4;stroke-dasharray:none;stop-color:#000000"
       id="rect988-8-2-0"
       width="122.76667"
       height="16.933331"
       x="6.3500004"
       y="397.93332"
       rx="1.0583333"
       ry="1.0629398e-06" />
  </g>
  <g
     inkscape:groupmode="layer"
     id="layer2"
     inkscape:label="Display" />
</svg>
