<?xml version="1.0" encoding="UTF-8" standalone="no"?>
<svg
   xmlns:dc="http://purl.org/dc/elements/1.1/"
   xmlns:cc="http://creativecommons.org/ns#"
   xmlns:rdf="http://www.w3.org/1999/02/22-rdf-syntax-ns#"
   xmlns:svg="http://www.w3.org/2000/svg"
   xmlns="http://www.w3.org/2000/svg"
   xmlns:sodipodi="http://sodipodi.sourceforge.net/DTD/sodipodi-0.dtd"
   xmlns:inkscape="http://www.inkscape.org/namespaces/inkscape"
   width="512"
   height="256"
   viewBox="0 0 135.46666 67.733336"
   version="1.1"
   id="svg8"
   inkscape:version="1.0.2 (e86c870879, 2021-01-15)"
   sodipodi:docname="west.svg"
   inkscape:export-filename="/home/sam/rpg/traveller-models/logos/bu_dari_sernug.png"
   inkscape:export-xdpi="300"
   inkscape:export-ydpi="300">
  <defs
     id="defs2" />
  <sodipodi:namedview
     id="base"
     pagecolor="#ffffff"
     bordercolor="#666666"
     borderopacity="1.0"
     inkscape:pageopacity="0.0"
     inkscape:pageshadow="2"
     inkscape:zoom="1.979899"
     inkscape:cx="296.2155"
     inkscape:cy="158.22037"
     inkscape:document-units="mm"
     inkscape:current-layer="g917"
     showgrid="false"
     inkscape:window-width="1603"
     inkscape:window-height="908"
     inkscape:window-x="2037"
     inkscape:window-y="511"
     inkscape:window-maximized="0"
     inkscape:pagecheckerboard="true"
     inkscape:document-rotation="0"
     units="px" />
  <metadata
     id="metadata5">
    <rdf:RDF>
      <cc:Work
         rdf:about="">
        <dc:format>image/svg+xml</dc:format>
        <dc:type
           rdf:resource="http://purl.org/dc/dcmitype/StillImage" />
        <dc:title></dc:title>
      </cc:Work>
    </rdf:RDF>
  </metadata>
  <g
     inkscape:label="Layer 1"
     inkscape:groupmode="layer"
     id="layer1"
     transform="translate(0,-223)">
    <g
       id="g917"
       transform="matrix(0.82933928,0,0,0.85056167,-6.8542838,73.635039)"
       style="stroke-width:1.19065">
      <text
         xml:space="preserve"
         style="font-style:normal;font-variant:normal;font-weight:normal;font-stretch:normal;font-size:26.882px;line-height:1.25;font-family:'Vilani Headline';-inkscape-font-specification:'Vilani Headline';font-variant-ligatures:normal;font-variant-caps:normal;font-variant-numeric:normal;font-feature-settings:normal;text-align:start;letter-spacing:0px;word-spacing:0px;writing-mode:lr-tb;text-anchor:start;fill:#ff0000;fill-opacity:1;stroke:none;stroke-width:0.315024"
         x="50.828571"
         y="223.51909"
         id="text860"
         transform="scale(0.99714855,1.0028596)"><tspan
           sodipodi:role="line"
           id="tspan858"
           x="50.828571"
           y="223.51909"
           style="font-style:normal;font-variant:normal;font-weight:normal;font-stretch:normal;font-size:26.882px;font-family:'Black Ops One';-inkscape-font-specification:'Black Ops One';font-variant-ligatures:normal;font-variant-caps:normal;font-variant-numeric:normal;font-feature-settings:normal;text-align:start;writing-mode:lr-tb;text-anchor:start;fill:#ff0000;stroke:none;stroke-width:0.315024">WEST</tspan></text>
      <text
         xml:space="preserve"
         style="font-size:10.0808px;line-height:1.25;font-family:'Permanent Marker';-inkscape-font-specification:'Permanent Marker';stroke-width:0.375083"
         x="27.607021"
         y="218.37556"
         id="text846"
         transform="scale(1.0127139,0.98744569)"><tspan
           sodipodi:role="line"
           id="tspan844"
           x="27.607021"
           y="218.37556"
           style="stroke-width:0.375083" /></text>
    </g>
  </g>
</svg>
